[gd_scene load_steps=3 format=2]

[ext_resource path="res://scenes/Level1Background.tscn" type="PackedScene" id=1]
[ext_resource path="res://gfx/space-shooter/backgrounds/1-blue.png" type="Texture" id=2]

[node name="Level2Background" instance=ExtResource( 1 )]

[node name="Background" parent="."]

texture = ExtResource( 2 )

[node name="Saturn" parent="."]

position = Vector2( 535.965, 312.616 )

[node name="Earth" parent="."]

position = Vector2( 96.6127, 560.191 )

[node name="Stars" parent="."]

visible = false
position = Vector2( 261.548, 245.179 )

[node name="Moon" parent="."]

position = Vector2( -11.1058, 433.437 )


