[gd_scene load_steps=5 format=2]

[ext_resource path="res://scenes/HealthBar.tscn" type="PackedScene" id=1]
[ext_resource path="res://gfx/space-shooter/hud/tiniest-health-bar.png" type="Texture" id=2]
[ext_resource path="res://gfx/space-shooter/hud/tiniest-health-bar-fill.png" type="Texture" id=3]

[sub_resource type="GDScript" id=1]

script/source = "extends TextureRect

func set_max_value(val): $Progress.max_value = val
func set_value(val): $Progress.value = val"

[node name="TiniestHealthBar" instance=ExtResource( 1 )]

margin_left = -22.0
margin_right = 23.0
margin_bottom = 11.0
texture = ExtResource( 2 )
script = SubResource( 1 )

[node name="Progress" parent="."]

margin_top = 5.0
margin_right = 36.0
margin_bottom = 17.0
texture_progress = ExtResource( 3 )


