[gd_scene load_steps=4 format=2]

[ext_resource path="res://scenes/Projectile.tscn" type="PackedScene" id=1]
[ext_resource path="res://gfx/space-shooter/shots/9.png" type="Texture" id=2]

[sub_resource type="RectangleShape2D" id=1]

custom_solver_bias = 0.0
extents = Vector2( 10, 5 )

[node name="UgabugaMouthProjectile" instance=ExtResource( 1 )]

speed = 20.0
source_type = 1
projectile_orientation = 3

[node name="Sprite" parent="."]

texture = ExtResource( 2 )
flip_v = true

[node name="CollisionShape" parent="."]

position = Vector2( 0, 3 )
shape = SubResource( 1 )


