[gd_scene load_steps=3 format=2]

[ext_resource path="res://scenes/AbilityPickup.tscn" type="PackedScene" id=1]
[ext_resource path="res://scenes/Abilities/ShieldRechargeAbility.tscn" type="PackedScene" id=2]

[node name="ShieldRechargeAbilityPickup" instance=ExtResource( 1 )]

ability = ExtResource( 2 )


