[gd_scene load_steps=3 format=2]

[ext_resource path="res://scenes/Pickup.tscn" type="PackedScene" id=1]
[ext_resource path="res://src/Pickups/ShotSpeedPerk.gd" type="Script" id=2]

[node name="ShotSpeedPerk" instance=ExtResource( 1 )]

script = ExtResource( 2 )
additional_shot_speed = 10


