[gd_scene load_steps=4 format=2]

[ext_resource path="res://scenes/Ability.tscn" type="PackedScene" id=1]
[ext_resource path="res://src/Abilities/ShieldRechargeAbility.gd" type="Script" id=2]
[ext_resource path="res://gfx/abilities/rechargable_shield.png" type="Texture" id=3]

[node name="ShieldRechargeAbility" instance=ExtResource( 1 )]

script = ExtResource( 2 )
name = "Shield Recharge"
icon = ExtResource( 3 )
amount = 0.001

[node name="Timer" type="Timer" parent="."]

process_mode = 1
wait_time = 0.05
one_shot = false
autostart = true

[connection signal="timeout" from="Timer" to="." method="_time_to_recharge"]


