[gd_scene load_steps=3 format=2]

[ext_resource path="res://scenes/Ability.tscn" type="PackedScene" id=1]
[ext_resource path="res://src/Abilities/ShieldRecharge.gd" type="Script" id=2]

[node name="ShieldRechargeAbility" instance=ExtResource( 1 )]

script = ExtResource( 2 )
name = "Shield Recharge"

[node name="Timer" type="Timer" parent="."]

process_mode = 1
wait_time = 1.0
one_shot = false
autostart = false


